{
  "Tenancy": [
    {
      "id": "0001",
      "dtdl": {
        "Models": [
          {
            "@id": "dtmi:com:example:building;1",
            "@type": "Interface",
            "@context": "dtmi:dtdl:context;2",
            "comment": "-",
            "description": "-",
            "displayName": "Building",
            "contents": [
              {
                "@type": "Property",
                "name": "ConstructionYear",
                "schema": "string"
              },
              {
                "@type": "Property",
                "name": "BuildingNumber",
                "schema": "string"
              },
              {
                "@type": "Relationship",
                "name": "isPartOf",
                "target": "dtmi:com:example:building;1"
              }
            ]
          },
          {
            "@id": "dtmi:com:example:floor;1",
            "@type": "Interface",
            "@context": "dtmi:dtdl:context;2",
            "displayName": "Floor",
            "contents": [
              {
                "@type": "Property",
                "name": "FloorEnum",
                "schema": {
                  "@type": "Enum",
                  "valueSchema": "integer",
                  "enumValues": [
                    {
                      "name": "B1",
                      "displayName": "B1",
                      "enumValue": -1
                    },
                    {
                      "name": "L1",
                      "displayName": "1/F",
                      "enumValue": 1
                    },
                    {
                      "name": "L2",
                      "displayName": "2/F",
                      "enumValue": 2
                    },
                    {
                      "name": "L3",
                      "displayName": "3/F",
                      "enumValue": 3
                    }
                  ]
                }
              },
              {
                "@type": "Relationship",
                "name": "isPartOf",
                "target": "dtmi:com:example:building;1"
              }
            ]
          },
          {
            "@id": "dtmi:com:example:room;1",
            "@type": "Interface",
            "@context": "dtmi:dtdl:context;2",
            "displayName": "Room",
            "contents": [
              {
                "@type": "Property",
                "name": "Occupied",
                "schema": "boolean"
              },
              {
                "@type": "Telemetry",
                "name": "Temperature",
                "schema": "double"
              },
              {
                "@type": "Telemetry",
                "name": "Humidity",
                "schema": "double"
              },
              {
                "@type": "Relationship",
                "name": "isPartOf",
                "target": "dtmi:com:example:floor;1"
              },
              {
                "@type": "Relationship",
                "name": "rel_has_sensors",
                "displayName": "Room has sensors",
                "target": "dtmi:com:example:sensor;1"
              }
            ]
          },
          {
            "@id": "dtmi:com:example:building:ConferenceRoom;1",
            "@type": "Interface",
            "@context": "dtmi:dtdl:context;2",
            "extends": "dtmi:com:example:room;1",
            "displayName": "ConferenceRoom",
            "contents": [
              {
                "@type": "Property",
                "name": "capacity",
                "schema": "integer"
              }
            ]
          },
          {
            "@id": "dtmi:com:example:sensor;1",
            "@type": "Interface",
            "@context": "dtmi:dtdl:context;2",
            "displayName": "Sensor",
            "contents": [
              {
                "@type": [
                  "Telemetry",
                  "Temperature"
                ],
                "name": "temperature",
                "displayName": "temperature",
                "schema": "double",
                "@id": "dtmi:com:example:Telemetry:temperature;1",
                "description": "-",
                "unit": "degreeCelsius"
              },
              {
                "@type": [
                  "Property",
                  "Temperature"
                ],
                "name": "setPointTemp",
                "schema": "double",
                "@id": "dtmi:com:example:Telemetry:setPointTemp;1",
                "unit": "degreeCelsius",
                "writable": true
              },
              {
                "@type": "Property",
                "name": "humidity",
                "schema": "double",
                "@id": "dtmi:com:example:Property:humidity;1",
                "description": "-",
                "displayName": "humidityhumidity"
              },
              {
                "@type": "Relationship",
                "name": "isPartOf",
                "target": "dtmi:com:example:room;1"
              }
            ]
          }
        ],
        "Twins": [
          {
            "digitalTwinsFileInfo": {
              "fileVersion": "1.0.0"
            },
            "digitalTwinsGraph": {
              "digitalTwins": [
                {
                  "$dtId": "MMSL11",
                  "$etag": "W/\"5d369364-7a41-43ad-bdb6-32596512d4a6\"",
                  "BuildingNumber": "11",
                  "ConstructionYear": "1970",
                  "$metadata": {
                    "$model": "dtmi:com:example:building;1"
                  }
                },
                {
                  "$dtId": "MMSL58",
                  "$etag": "W/\"92ea18f0-4ec7-45e9-8631-bce8622695ad\"",
                  "BuildingNumber": "58",
                  "ConstructionYear": "1977",
                  "$metadata": {
                    "$model": "dtmi:com:example:building;1"
                  }
                },
                {
                  "$dtId": "B1",
                  "$etag": "W/\"b1a954ac-94ac-410a-baf0-42c15929dc86\"",
                  "$metadata": {
                    "$model": "dtmi:com:example:floor;1"
                  }
                },
                {
                  "$dtId": "L1",
                  "$etag": "W/\"dd6aa9b3-7910-4cec-b0e0-179cd37bb4e8\"",
                  "FloorEnum": "1",
                  "$metadata": {
                    "$model": "dtmi:com:example:floor;1"
                  }
                },
                {
                  "$dtId": "L2",
                  "$etag": "W/\"e0190fe1-77d5-44c9-9ca3-30c65fb5dbf2\"",
                  "FloorEnum": "2",
                  "$metadata": {
                    "$model": "dtmi:com:example:floor;1"
                  }
                },
                {
                  "$dtId": "L3",
                  "$etag": "W/\"9dcd6b70-b8e5-45e0-9a4e-c5415285442c\"",
                  "FloorEnum": "3",
                  "$metadata": {
                    "$model": "dtmi:com:example:floor;1"
                  }
                },
                {
                  "$dtId": "58L1",
                  "$etag": "W/\"6a2ff399-b06e-4976-91d6-f8d61f87c224\"",
                  "FloorEnum": "1",
                  "$metadata": {
                    "$model": "dtmi:com:example:floor;1"
                  }
                },
                {
                  "$dtId": "11B153R",
                  "$etag": "W/\"cbed593f-dadf-41a9-824b-ddca70798566\"",
                  "Occupied": true,
                  "$metadata": {
                    "$model": "dtmi:com:example:room;1"
                  }
                },
                {
                  "$dtId": "11B187R",
                  "$etag": "W/\"2d5979a6-70b7-45a0-9f31-aa346ecba5b5\"",
                  "$metadata": {
                    "$model": "dtmi:com:example:room;1"
                  }
                },
                {
                  "$dtId": "Sensor_11B187R",
                  "$etag": "W/\"e8bb0827-69d4-481c-913d-03d45f109407\"",
                  "humidity": 95,
                  "setPointTemp": 30,
                  "$metadata": {
                    "$model": "dtmi:com:example:sensor;1"
                  }
                },
                {
                  "$dtId": "11B143R",
                  "$etag": "W/\"84b9ae15-8780-4638-bfa9-092e109e8c4b\"",
                  "capacity": 10,
                  "$metadata": {
                    "$model": "dtmi:com:example:building:ConferenceRoom;1"
                  }
                }
              ],
              "relationships": [
                {
                  "$relationshipId": "52f0440b-01b8-4e1b-886f-eeda1103dcd4",
                  "$sourceId": "B1",
                  "$targetId": "MMSL11",
                  "$relationshipName": "isPartOf",
                  "$etag": "W/\"7b82fda7-ece8-4445-bacf-95c41cb2ba27\""
                },
                {
                  "$relationshipId": "5724657e-0edb-4c20-89d4-4986d2c189c4",
                  "$sourceId": "L1",
                  "$targetId": "MMSL11",
                  "$relationshipName": "isPartOf",
                  "$etag": "W/\"e9afd39e-eef3-4240-b8eb-a6a151f064a3\""
                },
                {
                  "$relationshipId": "8128d3b1-0f91-4e39-9666-a58c442f8a79",
                  "$sourceId": "L3",
                  "$targetId": "MMSL11",
                  "$relationshipName": "isPartOf",
                  "$etag": "W/\"9c1e366e-4902-4e1e-ba32-91179ee33462\""
                },
                {
                  "$relationshipId": "8dad3897-0c11-4b16-b39b-74f994fa5a00",
                  "$sourceId": "L2",
                  "$targetId": "MMSL11",
                  "$relationshipName": "isPartOf",
                  "$etag": "W/\"19c5fe74-6a98-48a3-b7ea-490d7164fa3c\""
                },
                {
                  "$relationshipId": "3e4b71c2-4079-49b9-beb3-3d5b06fad0bc",
                  "$sourceId": "11B153R",
                  "$targetId": "L1",
                  "$relationshipName": "isPartOf",
                  "$etag": "W/\"c90eb1a1-f4c9-48f8-8b22-2b2a78cb52b7\""
                },
                {
                  "$relationshipId": "e07bab8b-42ea-4f01-a964-5a1b845b954f",
                  "$sourceId": "11B187R",
                  "$targetId": "L1",
                  "$relationshipName": "isPartOf",
                  "$etag": "W/\"f09ce96c-63ec-4bbc-84a8-09fea0aba966\""
                },
                {
                  "$relationshipId": "7583352b-db90-4ac2-ac79-6fb29a178b71",
                  "$sourceId": "11B187R",
                  "$targetId": "Sensor_11B187R",
                  "$relationshipName": "rel_has_sensors",
                  "$etag": "W/\"14a424ae-279b-4a1c-a8e3-8f9bd3d27483\""
                },
                {
                  "$relationshipId": "4abda9b4-6947-497d-8a2d-a2d5253b9766",
                  "$sourceId": "58L1",
                  "$targetId": "MMSL58",
                  "$relationshipName": "isPartOf",
                  "$etag": "W/\"6cf252e5-ed59-47f9-a4d1-3c60c2540da7\""
                },
                {
                  "$relationshipId": "c68c5685-140e-42a4-9233-763947bd05cb",
                  "$sourceId": "11B143R",
                  "$targetId": "L1",
                  "$relationshipName": "isPartOf",
                  "$etag": "W/\"ca3512aa-dff4-4f33-ad73-cd3b357202d7\""
                }
              ]
            },
            "digitalTwinsModels": [
              {
                "@id": "dtmi:com:example:building;1",
                "@type": "Interface",
                "@context": [
                  "dtmi:dtdl:context;2"
                ],
                "comment": "-",
                "description": "-",
                "displayName": "Building",
                "contents": [
                  {
                    "@type": "Property",
                    "name": "ConstructionYear",
                    "schema": "string"
                  },
                  {
                    "@type": "Property",
                    "name": "BuildingNumber",
                    "schema": "string"
                  },
                  {
                    "@type": "Relationship",
                    "name": "isPartOf",
                    "target": "dtmi:com:example:building;1"
                  }
                ]
              },
              {
                "@id": "dtmi:com:example:floor;1",
                "@type": "Interface",
                "@context": [
                  "dtmi:dtdl:context;2"
                ],
                "displayName": "Floor",
                "contents": [
                  {
                    "@type": "Property",
                    "name": "FloorEnum",
                    "schema": {
                      "@type": "Enum",
                      "valueSchema": "integer",
                      "enumValues": [
                        {
                          "name": "B1",
                          "displayName": "B1",
                          "enumValue": -1
                        },
                        {
                          "name": "L1",
                          "displayName": "1/F",
                          "enumValue": 1
                        },
                        {
                          "name": "L2",
                          "displayName": "2/F",
                          "enumValue": 2
                        },
                        {
                          "name": "L3",
                          "displayName": "3/F",
                          "enumValue": 3
                        }
                      ]
                    }
                  },
                  {
                    "@type": "Relationship",
                    "name": "isPartOf",
                    "target": "dtmi:com:example:building;1"
                  }
                ]
              },
              {
                "@id": "dtmi:com:example:room;1",
                "@type": "Interface",
                "@context": [
                  "dtmi:dtdl:context;2"
                ],
                "displayName": "Room",
                "contents": [
                  {
                    "@type": "Property",
                    "name": "Occupied",
                    "schema": "boolean"
                  },
                  {
                    "@type": "Telemetry",
                    "name": "Temperature",
                    "schema": "double"
                  },
                  {
                    "@type": "Telemetry",
                    "name": "Humidity",
                    "schema": "double"
                  },
                  {
                    "@type": "Relationship",
                    "name": "isPartOf",
                    "target": "dtmi:com:example:floor;1"
                  },
                  {
                    "@type": "Relationship",
                    "name": "rel_has_sensors",
                    "displayName": "Room has sensors",
                    "target": "dtmi:com:example:sensor;1"
                  }
                ]
              },
              {
                "@id": "dtmi:com:example:building:ConferenceRoom;1",
                "@type": "Interface",
                "@context": [
                  "dtmi:dtdl:context;2"
                ],
                "extends": "dtmi:com:example:room;1",
                "displayName": "ConferenceRoom",
                "contents": [
                  {
                    "@type": "Property",
                    "name": "capacity",
                    "schema": "integer"
                  }
                ]
              },
              {
                "@id": "dtmi:com:example:sensor;1",
                "@type": "Interface",
                "@context": [
                  "dtmi:dtdl:context;2"
                ],
                "displayName": "Sensor",
                "contents": [
                  {
                    "@type": [
                      "Telemetry",
                      "Temperature"
                    ],
                    "name": "temperature",
                    "displayName": "temperature",
                    "schema": "double",
                    "@id": "dtmi:com:example:Telemetry:temperature;1",
                    "description": "-",
                    "unit": "degreeCelsius"
                  },
                  {
                    "@type": [
                      "Property",
                      "Temperature"
                    ],
                    "name": "setPointTemp",
                    "schema": "double",
                    "@id": "dtmi:com:example:Telemetry:setPointTemp;1",
                    "unit": "degreeCelsius",
                    "writable": true
                  },
                  {
                    "@type": "Property",
                    "name": "humidity",
                    "schema": "double",
                    "@id": "dtmi:com:example:Property:humidity;1",
                    "description": "-",
                    "displayName": "humidityhumidity"
                  },
                  {
                    "@type": "Relationship",
                    "name": "isPartOf",
                    "target": "dtmi:com:example:room;1"
                  }
                ]
              }
            ]
          }
        ]
      }
    }
  ]
}