{
  "@id": "dtmi:com:example:floor;1",
  "@type": "Interface",
  "@context": "dtmi:dtdl:context;2",
  "displayName": "Floor",
  "contents": [
    {
      "@type": "Property",
      "name": "FloorEnum",
      "schema": {
        "@type": "Enum",
        "valueSchema": "integer",
        "enumValues": [
          {
            "name": "B1",
            "displayName": "B1",
            "enumValue": -1
          },
          {
            "name": "L1",
            "displayName": "1/F",
            "enumValue": 1
          },
          {
            "name": "L2",
            "displayName": "2/F",
            "enumValue": 2
          },
          {
            "name": "L3",
            "displayName": "3/F",
            "enumValue": 3
          }
        ]
      }
    },
    {
      "@type": "Relationship",
      "name": "isPartOf",
      "target": "dtmi:com:example:building;1"
    }
  ]
}